modules/rasterizer/tb/sim_build/dump.vcd
$version Generated by VerilatedVcd $end
$timescale 1ps $end
 $scope module $rootio $end
  $var wire 1 # clk $end
  $var wire 1 $ rstn $end
  $var wire 32 % i_v0[0] [31:0] $end
  $var wire 32 & i_v0[1] [31:0] $end
  $var wire 32 ' i_v0[2] [31:0] $end
  $var wire 32 ( i_v1[0] [31:0] $end
  $var wire 32 ) i_v1[1] [31:0] $end
  $var wire 32 * i_v1[2] [31:0] $end
  $var wire 32 + i_v2[0] [31:0] $end
  $var wire 32 , i_v2[1] [31:0] $end
  $var wire 32 - i_v2[2] [31:0] $end
  $var wire 32 . i_attr_v0[0] [31:0] $end
  $var wire 32 / i_attr_v0[1] [31:0] $end
  $var wire 32 0 i_attr_v0[2] [31:0] $end
  $var wire 32 1 i_attr_v1[0] [31:0] $end
  $var wire 32 2 i_attr_v1[1] [31:0] $end
  $var wire 32 3 i_attr_v1[2] [31:0] $end
  $var wire 32 4 i_attr_v2[0] [31:0] $end
  $var wire 32 5 i_attr_v2[1] [31:0] $end
  $var wire 32 6 i_attr_v2[2] [31:0] $end
  $var wire 1 7 i_dv $end
  $var wire 1 8 o_ready $end
  $var wire 32 9 o_bb_tl[0] [31:0] $end
  $var wire 32 : o_bb_tl[1] [31:0] $end
  $var wire 32 ; o_bb_br[0] [31:0] $end
  $var wire 32 < o_bb_br[1] [31:0] $end
  $var wire 32 = o_edge_val0 [31:0] $end
  $var wire 32 > o_edge_val1 [31:0] $end
  $var wire 32 ? o_edge_val2 [31:0] $end
  $var wire 32 @ o_edge_delta0[0] [31:0] $end
  $var wire 32 A o_edge_delta0[1] [31:0] $end
  $var wire 32 B o_edge_delta1[0] [31:0] $end
  $var wire 32 C o_edge_delta1[1] [31:0] $end
  $var wire 32 D o_edge_delta2[0] [31:0] $end
  $var wire 32 E o_edge_delta2[1] [31:0] $end
  $var wire 32 F o_attr0[0] [31:0] $end
  $var wire 32 G o_attr0[1] [31:0] $end
  $var wire 32 H o_attr0[2] [31:0] $end
  $var wire 32 I o_attr0[3] [31:0] $end
  $var wire 32 J o_attr_dx[0] [31:0] $end
  $var wire 32 K o_attr_dx[1] [31:0] $end
  $var wire 32 L o_attr_dx[2] [31:0] $end
  $var wire 32 M o_attr_dx[3] [31:0] $end
  $var wire 32 N o_attr_dy[0] [31:0] $end
  $var wire 32 O o_attr_dy[1] [31:0] $end
  $var wire 32 P o_attr_dy[2] [31:0] $end
  $var wire 32 Q o_attr_dy[3] [31:0] $end
  $var wire 1 R o_dv $end
  $var wire 1 S i_ready $end
  $var wire 1 T culled_triangle $end
 $upscope $end
 $scope module rasterizer_frontend $end
  $var wire 32 w" SIGNED [31:0] $end
  $var wire 32 x" INT_BITS [31:0] $end
  $var wire 32 x" FRAC_BITS [31:0] $end
  $var wire 32 y" DATA_WIDTH [31:0] $end
  $var wire 32 z" AREA_INT_BITS [31:0] $end
  $var wire 32 {" AREA_WIDTH [31:0] $end
  $var wire 32 |" N_ATTR [31:0] $end
  $var wire 32 }" SCREEN_WIDTH [31:0] $end
  $var wire 32 }" SCREEN_HEIGHT [31:0] $end
  $var wire 1 U clk $end
  $var wire 1 V rstn $end
  $var wire 32 W i_v0[0] [31:0] $end
  $var wire 32 X i_v0[1] [31:0] $end
  $var wire 32 Y i_v0[2] [31:0] $end
  $var wire 32 Z i_v1[0] [31:0] $end
  $var wire 32 [ i_v1[1] [31:0] $end
  $var wire 32 \ i_v1[2] [31:0] $end
  $var wire 32 ] i_v2[0] [31:0] $end
  $var wire 32 ^ i_v2[1] [31:0] $end
  $var wire 32 _ i_v2[2] [31:0] $end
  $var wire 32 ` i_attr_v0[0] [31:0] $end
  $var wire 32 a i_attr_v0[1] [31:0] $end
  $var wire 32 b i_attr_v0[2] [31:0] $end
  $var wire 32 c i_attr_v1[0] [31:0] $end
  $var wire 32 d i_attr_v1[1] [31:0] $end
  $var wire 32 e i_attr_v1[2] [31:0] $end
  $var wire 32 f i_attr_v2[0] [31:0] $end
  $var wire 32 g i_attr_v2[1] [31:0] $end
  $var wire 32 h i_attr_v2[2] [31:0] $end
  $var wire 1 i i_dv $end
  $var wire 1 j o_ready $end
  $var wire 32 k o_bb_tl[0] [31:0] $end
  $var wire 32 l o_bb_tl[1] [31:0] $end
  $var wire 32 m o_bb_br[0] [31:0] $end
  $var wire 32 n o_bb_br[1] [31:0] $end
  $var wire 32 o o_edge_val0 [31:0] $end
  $var wire 32 p o_edge_val1 [31:0] $end
  $var wire 32 q o_edge_val2 [31:0] $end
  $var wire 32 r o_edge_delta0[0] [31:0] $end
  $var wire 32 s o_edge_delta0[1] [31:0] $end
  $var wire 32 t o_edge_delta1[0] [31:0] $end
  $var wire 32 u o_edge_delta1[1] [31:0] $end
  $var wire 32 v o_edge_delta2[0] [31:0] $end
  $var wire 32 w o_edge_delta2[1] [31:0] $end
  $var wire 32 x o_attr0[0] [31:0] $end
  $var wire 32 y o_attr0[1] [31:0] $end
  $var wire 32 z o_attr0[2] [31:0] $end
  $var wire 32 { o_attr0[3] [31:0] $end
  $var wire 32 | o_attr_dx[0] [31:0] $end
  $var wire 32 } o_attr_dx[1] [31:0] $end
  $var wire 32 ~ o_attr_dx[2] [31:0] $end
  $var wire 32 !! o_attr_dx[3] [31:0] $end
  $var wire 32 "! o_attr_dy[0] [31:0] $end
  $var wire 32 #! o_attr_dy[1] [31:0] $end
  $var wire 32 $! o_attr_dy[2] [31:0] $end
  $var wire 32 %! o_attr_dy[3] [31:0] $end
  $var wire 1 &! o_dv $end
  $var wire 1 '! i_ready $end
  $var wire 1 (! culled_triangle $end
  $var wire 32 )! i [31:0] $end
  $var wire 32 ~" SCREEN_WIDTH_FP [31:0] $end
  $var wire 32 ~" SCREEN_HEIGHT_FP [31:0] $end
  $var wire 32 *! r_v0[0] [31:0] $end
  $var wire 32 +! r_v0[1] [31:0] $end
  $var wire 32 ,! r_v0[2] [31:0] $end
  $var wire 32 -! r_v1[0] [31:0] $end
  $var wire 32 .! r_v1[1] [31:0] $end
  $var wire 32 /! r_v1[2] [31:0] $end
  $var wire 32 0! r_v2[0] [31:0] $end
  $var wire 32 1! r_v2[1] [31:0] $end
  $var wire 32 2! r_v2[2] [31:0] $end
  $var wire 32 3! r_attr_v0[0] [31:0] $end
  $var wire 32 4! r_attr_v0[1] [31:0] $end
  $var wire 32 5! r_attr_v0[2] [31:0] $end
  $var wire 32 6! r_attr_v0[3] [31:0] $end
  $var wire 32 7! r_attr_v1[0] [31:0] $end
  $var wire 32 8! r_attr_v1[1] [31:0] $end
  $var wire 32 9! r_attr_v1[2] [31:0] $end
  $var wire 32 :! r_attr_v1[3] [31:0] $end
  $var wire 32 ;! r_attr_v2[0] [31:0] $end
  $var wire 32 <! r_attr_v2[1] [31:0] $end
  $var wire 32 =! r_attr_v2[2] [31:0] $end
  $var wire 32 >! r_attr_v2[3] [31:0] $end
  $var wire 32 ?! r_attr0[0] [31:0] $end
  $var wire 32 @! r_attr0[1] [31:0] $end
  $var wire 32 A! r_attr0[2] [31:0] $end
  $var wire 32 B! r_attr0[3] [31:0] $end
  $var wire 32 C! r_attr_dx[0] [31:0] $end
  $var wire 32 D! r_attr_dx[1] [31:0] $end
  $var wire 32 E! r_attr_dx[2] [31:0] $end
  $var wire 32 F! r_attr_dx[3] [31:0] $end
  $var wire 32 G! r_attr_dy[0] [31:0] $end
  $var wire 32 H! r_attr_dy[1] [31:0] $end
  $var wire 32 I! r_attr_dy[2] [31:0] $end
  $var wire 32 J! r_attr_dy[3] [31:0] $end
  $var wire 64 K! w_attr[0] [63:0] $end
  $var wire 64 M! w_attr[1] [63:0] $end
  $var wire 64 O! w_attr[2] [63:0] $end
  $var wire 64 Q! w_attr[3] [63:0] $end
  $var wire 64 S! w_attr_dx[0] [63:0] $end
  $var wire 64 U! w_attr_dx[1] [63:0] $end
  $var wire 64 W! w_attr_dx[2] [63:0] $end
  $var wire 64 Y! w_attr_dx[3] [63:0] $end
  $var wire 64 [! w_attr_dy[0] [63:0] $end
  $var wire 64 ]! w_attr_dy[1] [63:0] $end
  $var wire 64 _! w_attr_dy[2] [63:0] $end
  $var wire 64 a! w_attr_dy[3] [63:0] $end
  $var wire 32 c! r_edge_val0 [31:0] $end
  $var wire 32 d! r_edge_val1 [31:0] $end
  $var wire 32 e! r_edge_val2 [31:0] $end
  $var wire 32 f! r_edge_delta0[0] [31:0] $end
  $var wire 32 g! r_edge_delta0[1] [31:0] $end
  $var wire 32 h! r_edge_delta1[0] [31:0] $end
  $var wire 32 i! r_edge_delta1[1] [31:0] $end
  $var wire 32 j! r_edge_delta2[0] [31:0] $end
  $var wire 32 k! r_edge_delta2[1] [31:0] $end
  $var wire 40 l! r_area [39:0] $end
  $var wire 32 n! r_edge_function_v1[0] [31:0] $end
  $var wire 32 o! r_edge_function_v1[1] [31:0] $end
  $var wire 32 p! r_edge_function_v2[0] [31:0] $end
  $var wire 32 q! r_edge_function_v2[1] [31:0] $end
  $var wire 32 r! r_edge_function_p[0] [31:0] $end
  $var wire 32 s! r_edge_function_p[1] [31:0] $end
  $var wire 64 t! w_edge_function_val [63:0] $end
  $var wire 32 v! w_edge_function_delta[0] [31:0] $end
  $var wire 32 w! w_edge_function_delta[1] [31:0] $end
  $var wire 32 !# TILE_MIN_X [31:0] $end
  $var wire 32 !# TILE_MIN_Y [31:0] $end
  $var wire 32 "# TILE_MAX_X [31:0] $end
  $var wire 32 "# TILE_MAX_Y [31:0] $end
  $var wire 32 x! w_bb_tl[0] [31:0] $end
  $var wire 32 y! w_bb_tl[1] [31:0] $end
  $var wire 32 z! w_bb_br[0] [31:0] $end
  $var wire 32 {! w_bb_br[1] [31:0] $end
  $var wire 1 |! w_bb_valid $end
  $var wire 32 }! r_bb_tl[0] [31:0] $end
  $var wire 32 ~! r_bb_tl[1] [31:0] $end
  $var wire 32 !" r_bb_br[0] [31:0] $end
  $var wire 32 "" r_bb_br[1] [31:0] $end
  $var wire 1 #" r_bb_valid $end
  $var wire 32 $" i_min_x [31:0] $end
  $var wire 32 %" i_max_x [31:0] $end
  $var wire 32 &" i_min_y [31:0] $end
  $var wire 32 '" i_max_y [31:0] $end
  $var wire 1 (" w_area_division_ready $end
  $var wire 32 )" r_area_division_in_A [31:0] $end
  $var wire 1 *" r_area_division_in_A_dv $end
  $var wire 32 +" w_area_reciprocal [31:0] $end
  $var wire 1 ," w_area_reciprocal_dv $end
  $var wire 32 -" r_area_reciprocal [31:0] $end
  $var wire 64 ." w_bw_mul[0] [63:0] $end
  $var wire 64 0" w_bw_mul[1] [63:0] $end
  $var wire 64 2" w_bw_mul[2] [63:0] $end
  $var wire 64 4" w_bw_delta_mul[0][0] [63:0] $end
  $var wire 64 6" w_bw_delta_mul[0][1] [63:0] $end
  $var wire 64 8" w_bw_delta_mul[1][0] [63:0] $end
  $var wire 64 :" w_bw_delta_mul[1][1] [63:0] $end
  $var wire 64 <" w_bw_delta_mul[2][0] [63:0] $end
  $var wire 64 >" w_bw_delta_mul[2][1] [63:0] $end
  $var wire 32 @" r_barycentric_weight[0] [31:0] $end
  $var wire 32 A" r_barycentric_weight[1] [31:0] $end
  $var wire 32 B" r_barycentric_weight[2] [31:0] $end
  $var wire 32 C" r_barycentric_weight_delta[0][0] [31:0] $end
  $var wire 32 D" r_barycentric_weight_delta[0][1] [31:0] $end
  $var wire 32 E" r_barycentric_weight_delta[1][0] [31:0] $end
  $var wire 32 F" r_barycentric_weight_delta[1][1] [31:0] $end
  $var wire 32 G" r_barycentric_weight_delta[2][0] [31:0] $end
  $var wire 32 H" r_barycentric_weight_delta[2][1] [31:0] $end
  $var wire 1 I" w_should_be_culled $end
  $var wire 4 J" current_state [3:0] $end
  $var wire 4 K" next_state [3:0] $end
  $scope module edge_compute_inst $end
   $var wire 32 ## DATA_WIDTH [31:0] $end
   $var wire 32 L" v1[0] [31:0] $end
   $var wire 32 M" v1[1] [31:0] $end
   $var wire 32 N" v2[0] [31:0] $end
   $var wire 32 O" v2[1] [31:0] $end
   $var wire 32 P" p[0] [31:0] $end
   $var wire 32 Q" p[1] [31:0] $end
   $var wire 64 R" edge_function [63:0] $end
   $var wire 32 T" edge_delta[0] [31:0] $end
   $var wire 32 U" edge_delta[1] [31:0] $end
  $upscope $end
  $scope module fast_inverse_inst $end
   $var wire 32 ## DATA_WIDTH [31:0] $end
   $var wire 32 $# NUM_ITERATIONS [31:0] $end
   $var wire 1 V" clk $end
   $var wire 1 W" rstn $end
   $var wire 1 X" ready $end
   $var wire 32 Y" A [31:0] $end
   $var wire 1 Z" A_dv $end
   $var wire 32 [" A_inv [31:0] $end
   $var wire 1 \" A_inv_dv $end
   $var wire 32 %# MAX_SHIFT [31:0] $end
   $var wire 4 ]" iter [3:0] $end
   $var wire 64 ^" r_A [63:0] $end
   $var wire 64 `" r_A_scaled [63:0] $end
   $var wire 64 b" X [63:0] $end
   $var wire 32 d" i [31:0] $end
   $var wire 6 e" w_shift_amt [5:0] $end
   $var wire 6 f" r_shift_amt [5:0] $end
   $var wire 64 g" two_fp [63:0] $end
   $var wire 64 i" AX [63:0] $end
   $var wire 64 k" two_fp_minus_AX [63:0] $end
   $var wire 65 m" X_two_AX [64:0] $end
   $var wire 65 p" w_X_next [64:0] $end
   $var wire 64 s" w_A_inv [63:0] $end
   $var wire 2 u" current_state [1:0] $end
   $var wire 2 v" next_state [1:0] $end
  $upscope $end
 $upscope $end
$enddefinitions $end


#0
1#
0$
b00000000000000000000000000000000 %
b00000000000000000000000000000000 &
b00000000000000000000000000000000 '
b00000000000000000000000000000000 (
b00000000000000000000000000000000 )
b00000000000000000000000000000000 *
b00000000000000000000000000000000 +
b00000000000000000000000000000000 ,
b00000000000000000000000000000000 -
b00000000000000000000000000000000 .
b00000000000000000000000000000000 /
b00000000000000000000000000000000 0
b00000000000000000000000000000000 1
b00000000000000000000000000000000 2
b00000000000000000000000000000000 3
b00000000000000000000000000000000 4
b00000000000000000000000000000000 5
b00000000000000000000000000000000 6
07
18
b00000000000000000000000000000000 9
b00000000000000000000000000000000 :
b00000000000000000000000000000000 ;
b00000000000000000000000000000000 <
b00000000000000000000000000000000 =
b00000000000000000000000000000000 >
b00000000000000000000000000000000 ?
b00000000000000000000000000000000 @
b00000000000000000000000000000000 A
b00000000000000000000000000000000 B
b00000000000000000000000000000000 C
b00000000000000000000000000000000 D
b00000000000000000000000000000000 E
b00000000000000000000000000000000 F
b00000000000000000000000000000000 G
b00000000000000000000000000000000 H
b00000000000000000000000000000000 I
b00000000000000000000000000000000 J
b00000000000000000000000000000000 K
b00000000000000000000000000000000 L
b00000000000000000000000000000000 M
b00000000000000000000000000000000 N
b00000000000000000000000000000000 O
b00000000000000000000000000000000 P
b00000000000000000000000000000000 Q
0R
0S
0T
1U
0V
b00000000000000000000000000000000 W
b00000000000000000000000000000000 X
b00000000000000000000000000000000 Y
b00000000000000000000000000000000 Z
b00000000000000000000000000000000 [
b00000000000000000000000000000000 \
b00000000000000000000000000000000 ]
b00000000000000000000000000000000 ^
b00000000000000000000000000000000 _
b00000000000000000000000000000000 `
b00000000000000000000000000000000 a
b00000000000000000000000000000000 b
b00000000000000000000000000000000 c
b00000000000000000000000000000000 d
b00000000000000000000000000000000 e
b00000000000000000000000000000000 f
b00000000000000000000000000000000 g
b00000000000000000000000000000000 h
0i
1j
b00000000000000000000000000000000 k
b00000000000000000000000000000000 l
b00000000000000000000000000000000 m
b00000000000000000000000000000000 n
b00000000000000000000000000000000 o
b00000000000000000000000000000000 p
b00000000000000000000000000000000 q
b00000000000000000000000000000000 r
b00000000000000000000000000000000 s
b00000000000000000000000000000000 t
b00000000000000000000000000000000 u
b00000000000000000000000000000000 v
b00000000000000000000000000000000 w
b00000000000000000000000000000000 x
b00000000000000000000000000000000 y
b00000000000000000000000000000000 z
b00000000000000000000000000000000 {
b00000000000000000000000000000000 |
b00000000000000000000000000000000 }
b00000000000000000000000000000000 ~
b00000000000000000000000000000000 !!
b00000000000000000000000000000000 "!
b00000000000000000000000000000000 #!
b00000000000000000000000000000000 $!
b00000000000000000000000000000000 %!
0&!
0'!
0(!
b00000000000000000000000000000000 )!
b00000000000000000000000000000000 *!
b00000000000000000000000000000000 +!
b00000000000000000000000000000000 ,!
b00000000000000000000000000000000 -!
b00000000000000000000000000000000 .!
b00000000000000000000000000000000 /!
b00000000000000000000000000000000 0!
b00000000000000000000000000000000 1!
b00000000000000000000000000000000 2!
b00000000000000000000000000000000 3!
b00000000000000000000000000000000 4!
b00000000000000000000000000000000 5!
b00000000000000000000000000000000 6!
b00000000000000000000000000000000 7!
b00000000000000000000000000000000 8!
b00000000000000000000000000000000 9!
b00000000000000000000000000000000 :!
b00000000000000000000000000000000 ;!
b00000000000000000000000000000000 <!
b00000000000000000000000000000000 =!
b00000000000000000000000000000000 >!
b00000000000000000000000000000000 ?!
b00000000000000000000000000000000 @!
b00000000000000000000000000000000 A!
b00000000000000000000000000000000 B!
b00000000000000000000000000000000 C!
b00000000000000000000000000000000 D!
b00000000000000000000000000000000 E!
b00000000000000000000000000000000 F!
b00000000000000000000000000000000 G!
b00000000000000000000000000000000 H!
b00000000000000000000000000000000 I!
b00000000000000000000000000000000 J!
b0000000000000000000000000000000000000000000000000000000000000000 K!
b0000000000000000000000000000000000000000000000000000000000000000 M!
b0000000000000000000000000000000000000000000000000000000000000000 O!
b0000000000000000000000000000000000000000000000000000000000000000 Q!
b0000000000000000000000000000000000000000000000000000000000000000 S!
b0000000000000000000000000000000000000000000000000000000000000000 U!
b0000000000000000000000000000000000000000000000000000000000000000 W!
b0000000000000000000000000000000000000000000000000000000000000000 Y!
b0000000000000000000000000000000000000000000000000000000000000000 [!
b0000000000000000000000000000000000000000000000000000000000000000 ]!
b0000000000000000000000000000000000000000000000000000000000000000 _!
b0000000000000000000000000000000000000000000000000000000000000000 a!
b00000000000000000000000000000000 c!
b00000000000000000000000000000000 d!
b00000000000000000000000000000000 e!
b00000000000000000000000000000000 f!
b00000000000000000000000000000000 g!
b00000000000000000000000000000000 h!
b00000000000000000000000000000000 i!
b00000000000000000000000000000000 j!
b00000000000000000000000000000000 k!
b0000000000000000000000000000000000000000 l!
b00000000000000000000000000000000 n!
b00000000000000000000000000000000 o!
b00000000000000000000000000000000 p!
b00000000000000000000000000000000 q!
b00000000000000000000000000000000 r!
b00000000000000000000000000000000 s!
b0000000000000000000000000000000000000000000000000000000000000000 t!
b00000000000000000000000000000000 v!
b00000000000000000000000000000000 w!
b00000000000000000000000000000000 x!
b00000000000000000000000000000000 y!
b00000000000000000000000000000000 z!
b00000000000000000000000000000000 {!
0|!
b00000000000000000000000000000000 }!
b00000000000000000000000000000000 ~!
b00000000000000000000000000000000 !"
b00000000000000000000000000000000 ""
0#"
b00000000000000000000000000000000 $"
b00000000000000000000000000000000 %"
b00000000000000000000000000000000 &"
b00000000000000000000000000000000 '"
1("
b00000000000000000000000000000000 )"
0*"
b00000000000000000000000000000000 +"
0,"
b00000000000000000000000000000000 -"
b0000000000000000000000000000000000000000000000000000000000000000 ."
b0000000000000000000000000000000000000000000000000000000000000000 0"
b0000000000000000000000000000000000000000000000000000000000000000 2"
b0000000000000000000000000000000000000000000000000000000000000000 4"
b0000000000000000000000000000000000000000000000000000000000000000 6"
b0000000000000000000000000000000000000000000000000000000000000000 8"
b0000000000000000000000000000000000000000000000000000000000000000 :"
b0000000000000000000000000000000000000000000000000000000000000000 <"
b0000000000000000000000000000000000000000000000000000000000000000 >"
b00000000000000000000000000000000 @"
b00000000000000000000000000000000 A"
b00000000000000000000000000000000 B"
b00000000000000000000000000000000 C"
b00000000000000000000000000000000 D"
b00000000000000000000000000000000 E"
b00000000000000000000000000000000 F"
b00000000000000000000000000000000 G"
b00000000000000000000000000000000 H"
1I"
b0000 J"
b0000 K"
b00000000000000000000000000000000 L"
b00000000000000000000000000000000 M"
b00000000000000000000000000000000 N"
b00000000000000000000000000000000 O"
b00000000000000000000000000000000 P"
b00000000000000000000000000000000 Q"
b0000000000000000000000000000000000000000000000000000000000000000 R"
b00000000000000000000000000000000 T"
b00000000000000000000000000000000 U"
1V"
0W"
1X"
b00000000000000000000000000000000 Y"
0Z"
b00000000000000000000000000000000 ["
0\"
b0000 ]"
b0000000000000000000000000000000000000000000000000000000000000000 ^"
b0000000000000000000000000000000000000000000000000000000000000000 `"
b0000000000000000000000000000000100000000000000000000000000000000 b"
b11111111111111111111111111111111 d"
b000000 e"
b000000 f"
b0000000000000000000000000000001000000000000000000000000000000000 g"
b0000000000000000000000000000000000000000000000000000000000000000 i"
b0000000000000000000000000000001000000000000000000000000000000000 k"
b00000000000000000000000000000000000000000000000000000000000000000 m"
b00000000000000000000000000000000000000000000000000000000000000000 p"
b0000000000000000000000000000000100000000000000000000000000000000 s"
b00 u"
b00 v"
b00000000000000000000000000000001 w"
b00000000000000000000000000010000 x"
b00000000000000000000000000100000 y"
b00000000000000000000000000011000 z"
b00000000000000000000000000101000 {"
b00000000000000000000000000000100 |"
b00000000000000000000000001000000 }"
b00000000010000000000000000000000 ~"
b00000000000000000000000000000000 !#
b00000000010000000000000000000000 "#
b00000000000000000000000000100000 ##
b00000000000000000000000000001000 $#
b00000000000000000000000000000110 %#
#5000
0#
0U
0V"
#10000
1#
1U
1V"
#15000
0#
0U
0V"
#20000
1#
1$
1S
1U
1V
1'!
1V"
1W"
#25000
0#
0U
0V"
#30000
1#
b00000000001000000000000000000000 %
b00000000000000000001100110011010 '
b00000000010000000000000000000000 )
b00000000000000001000000000000000 *
b00000000010000000000000000000000 +
b00000000010000000000000000000000 ,
b00000000000000010000000000000000 -
17
1U
b00000000001000000000000000000000 W
b00000000000000000001100110011010 Y
b00000000010000000000000000000000 [
b00000000000000001000000000000000 \
b00000000010000000000000000000000 ]
b00000000010000000000000000000000 ^
b00000000000000010000000000000000 _
1i
b0001 K"
1V"
#35000
0#
0U
0V"
#40000
1#
b00000000000000000000000000000000 %
b00000000000000000000000000000000 '
b00000000000000000000000000000000 )
b00000000000000000000000000000000 *
b00000000000000000000000000000000 +
b00000000000000000000000000000000 ,
b00000000000000000000000000000000 -
07
08
1U
b00000000000000000000000000000000 W
b00000000000000000000000000000000 Y
b00000000000000000000000000000000 [
b00000000000000000000000000000000 \
b00000000000000000000000000000000 ]
b00000000000000000000000000000000 ^
b00000000000000000000000000000000 _
0i
0j
b00000000000000000000000000000100 )!
b00000000001000000000000000000000 *!
b00000000000000000001100110011010 ,!
b00000000010000000000000000000000 .!
b00000000000000001000000000000000 /!
b00000000010000000000000000000000 0!
b00000000010000000000000000000000 1!
b00000000000000010000000000000000 2!
b00000000000000000001100110011010 3!
b00000000000000001000000000000000 7!
b00000000000000010000000000000000 ;!
b00000000001000000000000000000000 n!
b00000000010000000000000000000000 q!
b00000000010000000000000000000000 r!
b00000000010000000000000000000000 s!
b0000000000000000000100000000000000000000000000000000000000000000 t!
b00000000010000000000000000000000 v!
b00000000001000000000000000000000 w!
b00000000010000000000000000000000 z!
b00000000010000000000000000000000 {!
1|!
b00000000010000000000000000000000 %"
b00000000010000000000000000000000 '"
b0001 J"
b0010 K"
b00000000001000000000000000000000 L"
b00000000010000000000000000000000 O"
b00000000010000000000000000000000 P"
b00000000010000000000000000000000 Q"
b0000000000000000000100000000000000000000000000000000000000000000 R"
b00000000010000000000000000000000 T"
b00000000001000000000000000000000 U"
1V"
#45000
0#
0U
0V"
#50000
1#
1U
b0000000000010000000000000000000000000000 l!
b00000000000000000000000000000000 r!
b00000000000000000000000000000000 s!
b1111111111111111111110000000000000000000000000000000000000000000 t!
b00000000010000000000000000000000 !"
b00000000010000000000000000000000 ""
1#"
0I"
b0010 J"
b0011 K"
b00000000000000000000000000000000 P"
b00000000000000000000000000000000 Q"
b1111111111111111111110000000000000000000000000000000000000000000 R"
1V"
#55000
0#
0U
0V"
#60000
1#
1U
b11111000000000000000000000000000 c!
b00000000010000000000000000000000 f!
b00000000001000000000000000000000 g!
b00000000000000000000000000000000 n!
b00000000010000000000000000000000 o!
b00000000010000000000000000000000 p!
b0000000000000000000100000000000000000000000000000000000000000000 t!
b00000000000000000000000000000000 v!
b11111111110000000000000000000000 w!
0("
b00010000000000000000000000000000 )"
1*"
b0011 J"
b0100 K"
b00000000000000000000000000000000 L"
b00000000010000000000000000000000 M"
b00000000010000000000000000000000 N"
b0000000000000000000100000000000000000000000000000000000000000000 R"
b00000000000000000000000000000000 T"
b11111111110000000000000000000000 U"
1V"
0X"
b00010000000000000000000000000000 Y"
1Z"
b01 v"
#65000
0#
0U
0V"
#70000
1#
1U
b00010000000000000000000000000000 d!
b11111111110000000000000000000000 i!
b00000000010000000000000000000000 n!
b00000000001000000000000000000000 p!
b00000000000000000000000000000000 q!
b0000000000000000000010000000000000000000000000000000000000000000 t!
b11111111110000000000000000000000 v!
b00000000001000000000000000000000 w!
0*"
b0100 J"
b0101 K"
b00000000010000000000000000000000 L"
b00000000001000000000000000000000 N"
b00000000000000000000000000000000 O"
b0000000000000000000010000000000000000000000000000000000000000000 R"
b11111111110000000000000000000000 T"
b00000000001000000000000000000000 U"
1V"
0Z"
b0001000000000000000000000000000000000000000000000000000000000000 ^"
b00000000000000000000000000011100 d"
b011101 e"
b01 u"
b10 v"
#75000
0#
0U
0V"
#80000
1#
1U
b00001000000000000000000000000000 e!
b11111111110000000000000000000000 j!
b00000000001000000000000000000000 k!
b0101 J"
1V"
b0000000000000000000000000000000010000000000000000000000000000000 `"
b011101 f"
b0000000000000000000000000000000010000000000000000000000000000000 i"
b0000000000000000000000000000000110000000000000000000000000000000 k"
b11000000000000000000000000000000000000000000000000000000000000000 m"
b00000000000000000000000000000000110000000000000000000000000000000 p"
b0000000000000000000000000000000000000000000000000000000000001000 s"
b10 u"
#85000
0#
0U
0V"
#90000
1#
1U
b00000000000000000000000000000000 n!
b00000000000000000000000000000000 o!
b00000000000000000000000000000000 p!
b0000000000000000000000000000000000000000000000000000000000000000 t!
b00000000000000000000000000000000 v!
b00000000000000000000000000000000 w!
b00000000000000000000000000000000 L"
b00000000000000000000000000000000 M"
b00000000000000000000000000000000 N"
b0000000000000000000000000000000000000000000000000000000000000000 R"
b00000000000000000000000000000000 T"
b00000000000000000000000000000000 U"
1V"
b0001 ]"
b0000000000000000000000000000000110000000000000000000000000000000 b"
b0000000000000000000000000000000011000000000000000000000000000000 i"
b0000000000000000000000000000000101000000000000000000000000000000 k"
b11110000000000000000000000000000000000000000000000000000000000000 m"
b00000000000000000000000000000000111100000000000000000000000000000 p"
b0000000000000000000000000000000000000000000000000000000000001100 s"
#95000
0#
0U
0V"
#100000
1#
1U
1V"
b0010 ]"
b0000000000000000000000000000000111100000000000000000000000000000 b"
b0000000000000000000000000000000011110000000000000000000000000000 i"
b0000000000000000000000000000000100010000000000000000000000000000 k"
b11111111000000000000000000000000000000000000000000000000000000000 m"
b00000000000000000000000000000000111111110000000000000000000000000 p"
b0000000000000000000000000000000000000000000000000000000000001111 s"
#105000
0#
0U
0V"
#110000
1#
1U
1V"
b0011 ]"
b0000000000000000000000000000000111111110000000000000000000000000 b"
b0000000000000000000000000000000011111111000000000000000000000000 i"
b0000000000000000000000000000000100000001000000000000000000000000 k"
b11111111111111110000000000000000000000000000000000000000000000000 m"
b00000000000000000000000000000000111111111111111100000000000000000 p"
b0000000000000000000000000000000000000000000000000000000000010000 s"
#115000
0#
0U
0V"
#120000
1#
1U
1V"
b0100 ]"
b0000000000000000000000000000000111111111111111100000000000000000 b"
b0000000000000000000000000000000011111111111111110000000000000000 i"
b0000000000000000000000000000000100000000000000010000000000000000 k"
b11111111111111111111111111111111000000000000000000000000000000000 m"
b00000000000000000000000000000000111111111111111111111111111111110 p"
#125000
0#
0U
0V"
#130000
1#
1U
1V"
b0101 ]"
b0000000000000000000000000000000111111111111111111111111111111110 b"
b0000000000000000000000000000000011111111111111111111111111111111 i"
b0000000000000000000000000000000100000000000000000000000000000001 k"
b11111111111111111111111111111111111111111111111111111111111111110 m"
b00000000000000000000000000000000111111111111111111111111111111111 p"
#135000
0#
0U
0V"
#140000
1#
1U
1V"
b0110 ]"
b0000000000000000000000000000000111111111111111111111111111111111 b"
b00000000000000000000000000000000011111111111111111111111111111111 m"
b00000000000000000000000000000000000000000000000000000000000000000 p"
#145000
0#
0U
0V"
#150000
1#
1U
1V"
b0111 ]"
b0000000000000000000000000000000000000000000000000000000000000000 b"
b0000000000000000000000000000000000000000000000000000000000000000 i"
b0000000000000000000000000000001000000000000000000000000000000000 k"
b00000000000000000000000000000000000000000000000000000000000000000 m"
b0000000000000000000000000000000000000000000000000000000000000000 s"
b11 v"
#155000
0#
0U
0V"
#160000
1#
1U
1V"
b1000 ]"
b11 u"
b00 v"
#165000
0#
0U
0V"
#170000
1#
1U
1("
1,"
b0110 K"
1V"
1X"
1\"
b00 u"
#175000
0#
0U
0V"
#180000
1#
1U
0,"
b0110 J"
b0111 K"
1V"
0\"
b0000 ]"
b0000000000000000000000000000000100000000000000000000000000000000 b"
b0000000000000000000000000000000010000000000000000000000000000000 i"
b0000000000000000000000000000000110000000000000000000000000000000 k"
b11000000000000000000000000000000000000000000000000000000000000000 m"
b00000000000000000000000000000000110000000000000000000000000000000 p"
b0000000000000000000000000000000000000000000000000000000000001000 s"
#185000
0#
0U
0V"
#190000
1#
1U
b0111 J"
b1000 K"
1V"
#195000
0#
0U
0V"
#200000
1#
1U
b1000 J"
b0000 K"
1V"
#205000
0#
0U
0V"
